Graphical Prediction Summary
…
(tissue_summ <- df %>%  group_by(dataset,predicted_tissue) %>% select(predicted_tissue) %>% summarise(Count = n()))

## Source: local data frame [91 x 3]
## Groups: dataset [?]
## 
##    dataset predicted_tissue Count
##     <fctr>            <chr> <int>
## 1     gtex   adipose tissue   734
## 2     gtex    adrenal gland   163
## 3     gtex          bladder    14
## 4     gtex            blood   594
## 5     gtex     blood vessel   755
## 6     gtex            brain  1402
## 7     gtex           breast   143
## 8     gtex     cervix uteri     4
## 9     gtex            colon   361
## 10    gtex        esophagus   753
## # ... with 81 more rows
…
