Prediction Summaries
…
## [1] 2034

## # A tibble: 2,034 x 2
##      project Count
##        <chr> <int>
##  1 DRP000366     1
##  2 DRP000425     4
##  3 DRP000464     8
##  4 DRP000499    21
##  5 DRP000527     4
##  6 DRP000622     5
##  7 DRP000665     7
##  8 DRP000929     4
##  9 DRP000987   121
## 10 DRP001048     6
## # ... with 2,024 more rows
…
